{
  "stats": {
    "suites": 1,
    "tests": 1,
    "passes": 1,
    "pending": 0,
    "failures": 0,
    "start": "2021-02-05T09:47:39.471Z",
    "end": "2021-02-05T09:48:09.541Z",
    "duration": 29906,
    "testsRegistered": 1,
    "passPercent": 100,
    "pendingPercent": 0,
    "other": 0,
    "hasOther": false,
    "skipped": 0,
    "hasSkipped": false
  },
  "results": [
    {
      "uuid": "874afa0d-cdaa-4da6-9fd2-17b7061895cb",
      "title": "",
      "fullFile": "cypress\\integration\\Test-000-00-buyCredits.spec.js",
      "file": "cypress\\integration\\Test-000-00-buyCredits.spec.js",
      "beforeHooks": [],
      "afterHooks": [],
      "tests": [],
      "suites": [
        {
          "uuid": "b9280cb7-a393-442a-a385-7aec84e45ceb",
          "title": "Test-002-05 VERIFY: BUY CREDITS",
          "fullFile": "",
          "file": "",
          "beforeHooks": [],
          "afterHooks": [],
          "tests": [
            {
              "title": "TC-01 VERIFY: TC-01 Login - SugarDaddy - HeUser - BUY 100 CREDITS",
              "fullTitle": "Test-002-05 VERIFY: BUY CREDITS TC-01 VERIFY: TC-01 Login - SugarDaddy - HeUser - BUY 100 CREDITS",
              "timedOut": null,
              "duration": 29906,
              "state": "passed",
              "speed": "slow",
              "pass": true,
              "fail": false,
              "pending": false,
              "context": null,
              "code": "_navigations.onNavigations.navigateToLogin();\n_loginPage.onLoginPage.loginSDRangerUser();\ncy.get('.css-rkptj6').find('span').should('be.visible').then(function ($body) {\n  var counterbeforebuy = $body.text();\n  if ($body.text() > 0) {\n    _navigations.onNavigations.navigateToBuy100Credits();\n    cy.wait(10000);\n    cy.frameLoaded('iframe[name=\"twispay-form\"]');\n    cy.iframe().find('#card-holder').clear().type('users.cardholder$$$');\n    cy.iframe().find('input[id=\"card-number\"]').clear().type('4242424242424242');\n    cy.iframe().find('input[id=\"card-expiry-month\"]').type('0223');\n    cy.iframe().find('input[id=\"cvv-code\"]').type('123');\n    cy.intercept('GET', '**/balance').as('getBalance');\n    cy.iframe().find('button').should('contain.text', '59').should('contain.text', 'Pay').should('have.class', 'btn-primary').click().wait(10000);\n    cy.wait('@getBalance').then(function (xhr) {\n      console.log(xhr);\n      expect(xhr.response.statusCode).to.equal(200);\n    });\n    cy.intercept('GET', '**/search*').as('getSearch');\n    cy.get('.home-button').should('contain.text', 'BACK HOME').click();\n    cy.wait('@getSearch').then(function (xhr) {\n      console.log(xhr);\n      expect(xhr.response.statusCode).to.equal(200);\n    });\n  }\n  cy.get('.css-rkptj6').find('span').should('be.visible').then(function ($body) {\n    var counterafterebuy = $body.text();\n    expect(counterbeforebuy).not.to.contain(counterafterebuy);\n  });\n});",
              "err": {},
              "uuid": "c7683da0-00ee-4537-9b0e-f9fb620b34cd",
              "parentUUID": "b9280cb7-a393-442a-a385-7aec84e45ceb",
              "isHook": false,
              "skipped": false
            }
          ],
          "suites": [],
          "passes": [
            "c7683da0-00ee-4537-9b0e-f9fb620b34cd"
          ],
          "failures": [],
          "pending": [],
          "skipped": [],
          "duration": 29906,
          "root": false,
          "rootEmpty": false,
          "_timeout": 2000
        }
      ],
      "passes": [],
      "failures": [],
      "pending": [],
      "skipped": [],
      "duration": 0,
      "root": true,
      "rootEmpty": true,
      "_timeout": 2000
    }
  ],
  "meta": {
    "mocha": {
      "version": "7.0.1"
    },
    "mochawesome": {
      "options": {
        "quiet": false,
        "reportFilename": "mochawesome",
        "saveHtml": false,
        "saveJson": true,
        "consoleReporter": "spec",
        "useInlineDiffs": false,
        "code": true
      },
      "version": "6.2.1"
    },
    "marge": {
      "options": {
        "overwrite": false,
        "html": false,
        "json": true
      },
      "version": "5.1.0"
    }
  }
}